{
  "type": "service_account",
  "project_id": "ionic-698a5",
  "private_key_id": "8666280960c645c9961be2e4a8b920268d8dd562",
  "private_key": "-----BEGIN PRIVATE KEY-----\nMIIEvgIBADANBgkqhkiG9w0BAQEFAASCBKgwggSkAgEAAoIBAQC3FoUG/N0xxnT8\n02I8JYBJLGNV30q6erl0gCuZoZqlPXmI+t5b5GAMYWHxee5YpopUeNmf7E8S1Lcd\nK9l9nOR2md3ZQWgC5LKRwkHIYEzS2KokAEsQ9qNOUrs9Cj9stbUjZrZnVzCEjmNV\nKvNUUP1ft/5KPma31i+7GLFBG5dZzeSNqFOCSJz+YNGhPfkCfnfkmqZColJvCZgx\nskV5Ye2bjZnoUx4WbeecVtOQrBK7a8f2zjbEErzlPogNW7XIgnoYKD9+YU3v4nI/\nT6quvTn6XgwVmPckgbw2r6YOSw1f+wBW1SlEW55R86Moce4tFih1hDFSBmOI9x74\nloQqFen/AgMBAAECggEAAKWQN7uZ7myUijYW8T5yqw+AlFOTGICJeitfvA2xlabX\ncI/uTCXM3w5TAb7cBC0mbPD2V9XGW7sroGtAu+xbdD3L5lIQU35KUTB9+f65Fr+U\nLkdf/IHahtLM/YS1P6WOq77XoxrQPY+hMzJRJLmag4WLXOjGhRy5E3CdY6z8xmDt\nx7IuZ/smZi6RUpCAeG/iASm17URLW3wHj3YFGcbrgsmTAvYU1uv9QRA6QHn47zx6\no72gx917aUfJ74X7Ytec6f+67ziWAU8zjf/QktB2raFKvALYb7ZnccDD7hRUR1oE\nGeRjC3/PnS7JbFQlZIfntz/GG3cmsj3RHG9MsRDlgQKBgQDZLG9D4uhSiOGzrEQc\neCoSkVYQ957oQHIR40B8siNIkGxsrr6RxmDtUocU02dl0rKkRE7HodXS29lgxBCo\n5afXCWKMrdUSKiADsaER7J/EZhkSbRlvqU5Z81gt3zsMY/rVCP+WdAoD6P+Y++xh\nok4/dtkP29Hlgy0bcMbTT1n9gQKBgQDX0g96tW4/CJvdHqORaVEklWE8TG1v9Kkr\nFfVPXIJVv0k1eri1OZIJKKgjsoPOZ/1JDW7SqoR80m9rgK0EO9/h92Pn8s5VUoZQ\neV5X7KYJqDUXLjcnw0GWED3VPs94NtYzJXwSHDpBZb7Xuxjuw/Rsaw0n1QVQzWCR\n55CExRKnfwKBgQCssWrg3sTDLNndWDTpNpyuGygHYgDYyrZqhv02qyjngQDXA7XC\nka9tyFxmMR1dmMg5W6ARmx0/CVe4XPCqfcSTeIEHQQvX3+uJRGzCphj9wfpZ7qt1\nYXpOiPUrtQFtfuttEDS93RRBu7vUWS/FC52RVd6Rf8lO6pqp4WoZilYTAQKBgQDE\neGFJFxN25JJnmLXU8WhCAo8TQow56CN8qq+4AIJSJyIxQjgWGoO8PLvcS228IGSu\n9UCXHU4hB70Qw4I+IXetkPXtONfnSoolhmeBaVi539v870CcvR7eyohPsa9TQ7B5\nvT0Wi4Xo9QPoBlYrPk4ryMSgJ0eAiIbKLGEezP0vZwKBgA6lShPi3M4Drf6kBVhe\nGyuTSOf8Ue4vOhUV24zKVCSQtx79u9z48qpfBt5EzofLb+i1HSP/RDRE5ScNRQzc\nxDAz4dozVpoAf1SCIFHj/8vkIc3oFFZSvPCEVvU9xWSVse+p2B7LVRRaA4eC0ri7\neB2rvt40W7Wojb+197U4NNKE\n-----END PRIVATE KEY-----\n",
  "client_email": "firebase-adminsdk-7z0dp@ionic-698a5.iam.gserviceaccount.com",
  "client_id": "115934180718719034361",
  "auth_uri": "https://accounts.google.com/o/oauth2/auth",
  "token_uri": "https://accounts.google.com/o/oauth2/token",
  "auth_provider_x509_cert_url": "https://www.googleapis.com/oauth2/v1/certs",
  "client_x509_cert_url": "https://www.googleapis.com/robot/v1/metadata/x509/firebase-adminsdk-7z0dp%40ionic-698a5.iam.gserviceaccount.com"
}
